[gd_scene load_steps=10 format=3 uid="uid://bn1nuedl8yvma"]

[ext_resource type="TileSet" uid="uid://wims2spvuw0l" path="res://WorldTileset.tres" id="1"]
[ext_resource type="PackedScene" uid="uid://b4t40w81b266p" path="res://scenes/Camera.tscn" id="2"]
[ext_resource type="PackedScene" uid="uid://cnly8rx3dgsy4" path="res://scenes/Player.tscn" id="3"]
[ext_resource type="PackedScene" uid="uid://h0pjed41lu5b" path="res://scenes/Teleport.tscn" id="4"]
[ext_resource type="Texture2D" uid="uid://dlo360g163kto" path="res://sprites/characters/roguelikeChar_transparent.png" id="4_l53jf"]
[ext_resource type="PackedScene" uid="uid://dxgnivi0n8e54" path="res://scenes/IndoorNPC.tscn" id="6_gw8sx"]
[ext_resource type="VideoStream" path="res://sprites/ActressWanabeVideo (1).ogv" id="7_pjyau"]

[sub_resource type="TileSetAtlasSource" id="TileSetAtlasSource_u6qb4"]
texture = ExtResource("4_l53jf")
texture_region_size = Vector2i(16, 17)
0:5/0 = 0
1:5/0 = 0
2:5/0 = 0
3:5/0 = 0
4:5/0 = 0
5:5/0 = 0
6:5/0 = 0
7:5/0 = 0
8:5/0 = 0
9:5/0 = 0
10:5/0 = 0
11:5/0 = 0
12:5/0 = 0
13:5/0 = 0
14:5/0 = 0
15:5/0 = 0
16:5/0 = 0
17:5/0 = 0
18:5/0 = 0
19:5/0 = 0
20:5/0 = 0
21:5/0 = 0
22:5/0 = 0
23:5/0 = 0
24:5/0 = 0
25:5/0 = 0
26:5/0 = 0
27:5/0 = 0
28:5/0 = 0
30:5/0 = 0
31:5/0 = 0
32:5/0 = 0
33:5/0 = 0
35:5/0 = 0
36:5/0 = 0
37:5/0 = 0
38:5/0 = 0
39:5/0 = 0
40:5/0 = 0
41:5/0 = 0
42:5/0 = 0
43:5/0 = 0
44:5/0 = 0
0:6/0 = 0
1:6/0 = 0
2:6/0 = 0
3:6/0 = 0
4:6/0 = 0
5:6/0 = 0
6:6/0 = 0
7:6/0 = 0
8:6/0 = 0
9:6/0 = 0
10:6/0 = 0
11:6/0 = 0
12:6/0 = 0
13:6/0 = 0
14:6/0 = 0
15:6/0 = 0
16:6/0 = 0
17:6/0 = 0
18:6/0 = 0
19:6/0 = 0
20:6/0 = 0
21:6/0 = 0
22:6/0 = 0
23:6/0 = 0
24:6/0 = 0
25:6/0 = 0
26:6/0 = 0
27:6/0 = 0
28:6/0 = 0
29:6/0 = 0
30:6/0 = 0
31:6/0 = 0
32:6/0 = 0
33:6/0 = 0
35:6/0 = 0
36:6/0 = 0
37:6/0 = 0
38:6/0 = 0
39:6/0 = 0
40:6/0 = 0
41:6/0 = 0
42:6/0 = 0
43:6/0 = 0
44:6/0 = 0
0:7/0 = 0
1:7/0 = 0
2:7/0 = 0
3:7/0 = 0
4:7/0 = 0
5:7/0 = 0
6:7/0 = 0
7:7/0 = 0
8:7/0 = 0
9:7/0 = 0
10:7/0 = 0
11:7/0 = 0
12:7/0 = 0
13:7/0 = 0
14:7/0 = 0
15:7/0 = 0
16:7/0 = 0
17:7/0 = 0
18:7/0 = 0
19:7/0 = 0
20:7/0 = 0
21:7/0 = 0
22:7/0 = 0
23:7/0 = 0
24:7/0 = 0
25:7/0 = 0
26:7/0 = 0
27:7/0 = 0
28:7/0 = 0
29:7/0 = 0
30:7/0 = 0
31:7/0 = 0
32:7/0 = 0
33:7/0 = 0
35:7/0 = 0
36:7/0 = 0
37:7/0 = 0
38:7/0 = 0
39:7/0 = 0
40:7/0 = 0
41:7/0 = 0
42:7/0 = 0
43:7/0 = 0
44:7/0 = 0
0:4/0 = 0
1:4/0 = 0
2:4/0 = 0
3:4/0 = 0
4:4/0 = 0
5:4/0 = 0
6:4/0 = 0
7:4/0 = 0
8:4/0 = 0
9:4/0 = 0
10:4/0 = 0
11:4/0 = 0
12:4/0 = 0
13:4/0 = 0
14:4/0 = 0
15:4/0 = 0
16:4/0 = 0
17:4/0 = 0
18:4/0 = 0
19:4/0 = 0
20:4/0 = 0
21:4/0 = 0
22:4/0 = 0
23:4/0 = 0
24:4/0 = 0
25:4/0 = 0
26:4/0 = 0
27:4/0 = 0
28:4/0 = 0
30:4/0 = 0
31:4/0 = 0
32:4/0 = 0
33:4/0 = 0
35:4/0 = 0
36:4/0 = 0
37:4/0 = 0
38:4/0 = 0
39:4/0 = 0
40:4/0 = 0
41:4/0 = 0
42:4/0 = 0
43:4/0 = 0
44:4/0 = 0
0:3/0 = 0
1:3/0 = 0
2:3/0 = 0
3:3/0 = 0
4:3/0 = 0
5:3/0 = 0
6:3/0 = 0
7:3/0 = 0
8:3/0 = 0
9:3/0 = 0
10:3/0 = 0
11:3/0 = 0
12:3/0 = 0
13:3/0 = 0
14:3/0 = 0
15:3/0 = 0
16:3/0 = 0
17:3/0 = 0
18:3/0 = 0
19:3/0 = 0
20:3/0 = 0
21:3/0 = 0
22:3/0 = 0
23:3/0 = 0
24:3/0 = 0
25:3/0 = 0
26:3/0 = 0
27:3/0 = 0
28:3/0 = 0
30:3/0 = 0
31:3/0 = 0
32:3/0 = 0
33:3/0 = 0
35:3/0 = 0
36:3/0 = 0
37:3/0 = 0
38:3/0 = 0
39:3/0 = 0
40:3/0 = 0
41:3/0 = 0
42:3/0 = 0
43:3/0 = 0
44:3/0 = 0
0:2/0 = 0
1:2/0 = 0
2:2/0 = 0
3:2/0 = 0
4:2/0 = 0
5:2/0 = 0
6:2/0 = 0
7:2/0 = 0
8:2/0 = 0
9:2/0 = 0
10:2/0 = 0
11:2/0 = 0
12:2/0 = 0
13:2/0 = 0
14:2/0 = 0
15:2/0 = 0
16:2/0 = 0
17:2/0 = 0
18:2/0 = 0
19:2/0 = 0
20:2/0 = 0
21:2/0 = 0
22:2/0 = 0
23:2/0 = 0
24:2/0 = 0
25:2/0 = 0
26:2/0 = 0
27:2/0 = 0
28:2/0 = 0
30:2/0 = 0
31:2/0 = 0
32:2/0 = 0
33:2/0 = 0
35:2/0 = 0
36:2/0 = 0
37:2/0 = 0
38:2/0 = 0
39:2/0 = 0
40:2/0 = 0
41:2/0 = 0
42:2/0 = 0
43:2/0 = 0
44:2/0 = 0
0:1/0 = 0
1:1/0 = 0
2:1/0 = 0
3:1/0 = 0
4:1/0 = 0
6:1/0 = 0
7:1/0 = 0
8:1/0 = 0
9:1/0 = 0
10:1/0 = 0
11:1/0 = 0
12:1/0 = 0
13:1/0 = 0
14:1/0 = 0
15:1/0 = 0
16:1/0 = 0
17:1/0 = 0
18:1/0 = 0
19:1/0 = 0
20:1/0 = 0
21:1/0 = 0
22:1/0 = 0
23:1/0 = 0
24:1/0 = 0
25:1/0 = 0
26:1/0 = 0
27:1/0 = 0
28:1/0 = 0
30:1/0 = 0
31:1/0 = 0
32:1/0 = 0
33:1/0 = 0
35:1/0 = 0
36:1/0 = 0
37:1/0 = 0
38:1/0 = 0
39:1/0 = 0
40:1/0 = 0
41:1/0 = 0
42:1/0 = 0
43:1/0 = 0
44:1/0 = 0
0:0/0 = 0
1:0/0 = 0
2:0/0 = 0
3:0/0 = 0
4:0/0 = 0
5:0/0 = 0
6:0/0 = 0
7:0/0 = 0
8:0/0 = 0
9:0/0 = 0
10:0/0 = 0
11:0/0 = 0
12:0/0 = 0
13:0/0 = 0
14:0/0 = 0
15:0/0 = 0
16:0/0 = 0
17:0/0 = 0
18:0/0 = 0
19:0/0 = 0
20:0/0 = 0
21:0/0 = 0
22:0/0 = 0
23:0/0 = 0
24:0/0 = 0
25:0/0 = 0
26:0/0 = 0
27:0/0 = 0
28:0/0 = 0
30:0/0 = 0
31:0/0 = 0
32:0/0 = 0
33:0/0 = 0
35:0/0 = 0
36:0/0 = 0
37:0/0 = 0
38:0/0 = 0
39:0/0 = 0
40:0/0 = 0
41:0/0 = 0
42:0/0 = 0
43:0/0 = 0
44:0/0 = 0

[sub_resource type="TileSet" id="TileSet_bnbio"]
tile_size = Vector2i(10, 10)
sources/0 = SubResource("TileSetAtlasSource_u6qb4")

[node name="House" type="Node2D"]

[node name="Environment" type="Node2D" parent="."]

[node name="BottomLayer" type="TileMap" parent="Environment"]
tile_set = ExtResource("1")
format = 2
layer_0/tile_data = PackedInt32Array(1441818, 524289, 5, 1507354, 524289, 5, 1572890, 524289, 5, 1638426, 524289, 5, 1703962, 524289, 5, 1769498, 524289, 5, 1835034, 524289, 5, 1900570, 524289, 5, 1900571, 524289, 5, 1900572, 524289, 5, 1900573, 524289, 5, 1900574, 524289, 5, 1900575, 2162689, 0, 1900576, 524289, 5, 1900577, 524289, 5, 1835041, 524289, 5, 1769505, 524289, 5, 1703969, 524289, 5, 1638433, 524289, 5, 1572897, 524289, 5, 1507361, 524289, 5, 1441825, 524289, 5, 1441824, 524289, 5, 1441823, 524289, 5, 1441822, 524289, 5, 1441821, 524289, 5, 1441820, 524289, 5, 1441819, 524289, 5)

[node name="MiddleLayer" type="TileMap" parent="Environment"]
tile_set = ExtResource("1")
format = 2

[node name="Decorations" type="TileMap" parent="Environment"]
tile_set = ExtResource("1")
format = 2

[node name="TeleportFromHouse" parent="Environment" instance=ExtResource("4")]
position = Vector2(505, 474)
next_scene = "res://scenes/World.tscn"
message = "Press SPACE to leave."

[node name="TileMap" type="TileMap" parent="Environment"]
tile_set = SubResource("TileSet_bnbio")
format = 2

[node name="Player" parent="." instance=ExtResource("3")]
position = Vector2(472, 424)

[node name="IndoorNPC" parent="." instance=ExtResource("6_gw8sx")]
position = Vector2(519, 376)

[node name="Camera2D" parent="." instance=ExtResource("2")]
position = Vector2(472, 424)
zoom = Vector2(4, 4)

[node name="CanvasLayer" type="CanvasLayer" parent="Camera2D"]
layer = 90

[node name="VideoStreamPlayer" type="VideoStreamPlayer" parent="Camera2D/CanvasLayer"]
offset_top = 1.0
offset_right = 1920.0
offset_bottom = 1089.0
scale = Vector2(0.6, 0.6)
stream = ExtResource("7_pjyau")
